Association rules
…
rating %>% filter(!is.na(Rating)) %>% group_by(MovieID) %>% summarise(averate = mean(Rating,na.rm=T)) %>%
  right_join(movie,by = "MovieID") %>% filter(MovieID != 25942) %>% group_by(year) %>% summarise(averate = mean(averate,rm.na=T)) %>% 
  arrange(-averate)

## # A tibble: 94 x 2
##     year averate
##    <dbl>   <dbl>
##  1  1924    3.91
##  2  1931    3.71
##  3  1921    3.67
##  4  1938    3.65
##  5  1946    3.64
##  6  1941    3.63
##  7  1939    3.62
##  8  1932    3.61
##  9  1916    3.60
## 10  1929    3.60
## # ... with 84 more rows
…
